<?xml version="1.0" encoding="UTF-8"?>
<session version="1.0">
<refactoring comment="Copy package &apos;exercise6&apos; to &apos;30_08_2016/src&apos;&#x0D;&#x0A;- Original project: &apos;29_08_2016&apos;&#x0D;&#x0A;- Destination element: &apos;30_08_2016/src&apos;&#x0D;&#x0A;- Original element: &apos;29_08_2016/src/exercise6&apos;" description="Copy package" destination="=30_08_2016/src" element1="/src&lt;exercise6" flags="589830" fragments="1" id="org.eclipse.jdt.ui.copy" policy="org.eclipse.jdt.ui.copyPackages" stamp="1472580133788" version="1.0"/>
</session>