pl\sdacademy\lukasz\lib\test\Main.class
pl\sdacademy\lukasz\lib\json_data_reader\GetRequest$1.class
pl\sdacademy\lukasz\lib\json_data_reader\GetRequest.class
pl\sdacademy\lukasz\lib\json_data_reader\PutRequest.class
pl\sdacademy\lukasz\lib\data\Student.class
pl\sdacademy\lukasz\lib\json_data_reader\PostRequest.class
pl\sdacademy\lukasz\lib\json_data_reader\Request.class
